…
[`predict_heat_injury()`](https://itchyshin.github.io/freqTLS/dev/reference/predict_heat_injury.md)
for the point trajectory,
[`plot_heat_injury()`](https://itchyshin.github.io/freqTLS/dev/reference/plot_heat_injury.md)
to draw the band.

## Examples

``` r
d <- simulate_tls(family = "binomial", CTmax = 36, z = 4, seed = 1)
fit <- fit_tls(d, y = survived, n = total, time = duration, temp = temp,
               family = "binomial", tref = 1)
trace <- data.frame(time = seq(0, 2, by = 0.1),
                    temp = 34 + 6 * sin(seq(0, 2, by = 0.1)))
heat_injury_envelope(fit, trace, nboot = 50, seed = 1)
#> # A tibble: 21 × 5
#>     time  temp survival conf.low conf.high
#>    <dbl> <dbl>    <dbl>    <dbl>     <dbl>
#>  1   0    34      0.977    0.963     0.994
#>  2   0.1  34.6    0.977    0.963     0.992
#>  3   0.2  35.2    0.973    0.960     0.985
#>  4   0.3  35.8    0.962    0.946     0.973
#>  5   0.4  36.3    0.935    0.913     0.954
#>  6   0.5  36.9    0.878    0.837     0.911
#>  7   0.6  37.4    0.776    0.718     0.832
#>  8   0.7  37.9    0.629    0.556     0.697
#>  9   0.8  38.3    0.462    0.391     0.529
#> 10   0.9  38.7    0.314    0.251     0.375
#> # ℹ 11 more rows
```
